cz/cvut/fel/ts1/selenium/config/DriverType$3.class
cz/cvut/fel/ts1/selenium/config/DriverType$6.class
cz/cvut/fel/ts1/selenium/config/DriverType$1.class
cz/cvut/fel/ts1/selenium/DriverBase$1.class
cz/cvut/fel/ts1/selenium/config/DriverType$2.class
cz/cvut/fel/ts1/selenium/config/DriverType$5.class
cz/cvut/fel/ts1/selenium/config/DriverType$4.class
cz/cvut/fel/ts1/selenium/config/DriverFactory.class
cz/cvut/fel/ts1/selenium/config/DriverSetup.class
cz/cvut/fel/ts1/selenium/config/DriverType.class
cz/cvut/fel/ts1/selenium/DriverBase.class
cz/cvut/fel/ts1/selenium/DriverBase$2.class
