/Users/martik/IdeaProjects/TS1_hws/hw_04/src/main/java/cz/cvut/fel/ts1/archive/PurchasesArchive.java
/Users/martik/IdeaProjects/TS1_hws/hw_04/src/main/java/cz/cvut/fel/ts1/archive/ItemPurchaseArchiveEntry.java
/Users/martik/IdeaProjects/TS1_hws/hw_04/src/main/java/cz/cvut/fel/ts1/shop/EShopController.java
/Users/martik/IdeaProjects/TS1_hws/hw_04/src/main/java/cz/cvut/fel/ts1/main/main.java
/Users/martik/IdeaProjects/TS1_hws/hw_04/src/main/java/cz/cvut/fel/ts1/shop/Order.java
/Users/martik/IdeaProjects/TS1_hws/hw_04/src/main/java/cz/cvut/fel/ts1/shop/StandardItem.java
/Users/martik/IdeaProjects/TS1_hws/hw_04/src/main/java/cz/cvut/fel/ts1/storage/Storage.java
/Users/martik/IdeaProjects/TS1_hws/hw_04/src/main/java/cz/cvut/fel/ts1/storage/NoItemInStorage.java
/Users/martik/IdeaProjects/TS1_hws/hw_04/src/main/java/cz/cvut/fel/ts1/shop/DiscountedItem.java
/Users/martik/IdeaProjects/TS1_hws/hw_04/src/main/java/cz/cvut/fel/ts1/shop/ShoppingCart.java
/Users/martik/IdeaProjects/TS1_hws/hw_04/src/main/java/cz/cvut/fel/ts1/shop/Item.java
/Users/martik/IdeaProjects/TS1_hws/hw_04/src/main/java/cz/cvut/fel/ts1/storage/ItemStock.java
