/Users/martik/IdeaProjects/TS1_hws/Cvika/selenium-3/src/main/java/cz/cvut/fel/ts1/selenium/config/DriverFactory.java
/Users/martik/IdeaProjects/TS1_hws/Cvika/selenium-3/src/main/java/cz/cvut/fel/ts1/selenium/config/DriverType.java
/Users/martik/IdeaProjects/TS1_hws/Cvika/selenium-3/src/main/java/cz/cvut/fel/ts1/selenium/DriverBase.java
/Users/martik/IdeaProjects/TS1_hws/Cvika/selenium-3/src/main/java/cz/cvut/fel/ts1/selenium/config/DriverSetup.java
