0;1 - 2 - 3 - 5 - 8 - 7 - 8 - 9 - 11 - 12 - 13
1;1 - 4 - 5 - 10 - 11 - 14 - 15 - 17 - 12 - 13
2;1 - 6 - 8 - 7 - 10 - 11 - 12 - 13
3;1 - 6 - 10 - 11 - 12 - 13
4;1 - 6 - 10 - 11 - 14 - 15 - 17 - 14 - 15 - 17 - 12 - 13
5;1 - 6 - 10 - 11 - 14 - 15 - 16
