cz/cvut/fel/semestralni_projekt_navrh/Animals/Wolf.class
cz/cvut/fel/semestralni_projekt_navrh/OldFIles/SimulationFieldOld.class
cz/cvut/fel/semestralni_projekt_navrh/EntityContainer.class
cz/cvut/fel/semestralni_projekt_navrh/Plants/Plant.class
cz/cvut/fel/semestralni_projekt_navrh/SimulationField.class
cz/cvut/fel/semestralni_projekt_navrh/SimulationField$1.class
cz/cvut/fel/semestralni_projekt_navrh/GUIDataWrapper.class
cz/cvut/fel/semestralni_projekt_navrh/OldFIles/SimulationFieldOld$1.class
cz/cvut/fel/semestralni_projekt_navrh/PlainField.class
cz/cvut/fel/semestralni_projekt_navrh/Main.class
cz/cvut/fel/semestralni_projekt_navrh/Plants/Grass.class
cz/cvut/fel/semestralni_projekt_navrh/GUI/MainFrame.class
cz/cvut/fel/semestralni_projekt_navrh/Entity$EntityTypes.class
cz/cvut/fel/semestralni_projekt_navrh/Plants/Tree.class
cz/cvut/fel/semestralni_projekt_navrh/Animals/Animal.class
cz/cvut/fel/semestralni_projekt_navrh/Entity.class
cz/cvut/fel/semestralni_projekt_navrh/OldFIles/SimulationFieldOldest.class
cz/cvut/fel/semestralni_projekt_navrh/Plants/NightShade.class
cz/cvut/fel/semestralni_projekt_navrh/Animals/Rabbit.class
