Nodes/Edges;1;2;Y1;N1;5;6;Y2;N2;9;Y3;N3;12
START;ScoutForFood;-;-;-;-;-;-;-;-;-;-;-
ScoutForFood;-;FoundFood;-;-;-;-;-;-;-;-;-;-
FoundFood;-;-;EatFood;END D;-;-;-;-;-;-;-;-
EatFood;-;-;-;-;IncrementSatiety;-;-;-;-;-;-;-
END D;-;-;-;-;-;-;-;-;-;-;-;-
IncrementSatiety;-;-;-;-;-;HasPlantFruits?;-;-;-;-;-;-
HasPlantFruits?;-;-;-;-;-;-;Kill plant;isNightShade;-;-;-;-
Kill plant;-;-;-;-;-;-;-;-;isNightShade;-;-;-
isNightShade;-;-;-;-;-;-;-;-;-;Kill rabbit;END J;-
Kill rabbit;-;-;-;-;-;-;-;-;-;-;-;END K
END J;-;-;-;-;-;-;-;-;-;-;-;-
END K;-;-;-;-;-;-;-;-;-;-;-;-
